module test-apps/auth-app-grpc/sso

go 1.21.4

require (
	github.com/BurntSushi/toml v1.3.2 // indirect
	github.com/fatih/color v1.16.0 // indirect
	github.com/ilyakaznacheev/cleanenv v1.5.0 // indirect
	github.com/joho/godotenv v1.5.1 // indirect
	github.com/mattn/go-colorable v0.1.13 // indirect
	github.com/mattn/go-isatty v0.0.20 // indirect
	golang.org/x/sys v0.14.0 // indirect
	gopkg.in/yaml.v3 v3.0.1 // indirect
	olympos.io/encoding/edn v0.0.0-20201019073823-d3554ca0b0a3 // indirect
)
